{
  "simulation_parsian" : {
  "0" : {
    "KP" : 27.0,
    "KD" : 0.0,
    "KI" : 0.0
  },
  "15" : {
    "KP" : 20,
    "KD" : 0.3,
    "KI" : 0.1
  },
  "30" : {
    "KP" : 30,
    "KD" : 5.0,
    "KI" : 0
  },
  "45" : {
    "KP" : 39,
    "KD" : 10.0,
    "KI" : 0.05
  },
  "60" : {
    "KP" : 60,
    "KD" : 24.0,
    "KI" : 0.1
  },
  "75" : {
    "KP" : 70,
    "KD" : 27.0,
    "KI" : 0
  }
},
"simulation_fixed_Kp" : {
  "0" : {
    "KP" : 0.0,
    "KD" : 0.0,
    "KI" : 0.0
  },

  "10" : {
    "KP" : 20,
    "KD" : 0.0,
    "KI" : 0.0
  },

  "25" : {
    "KP" : 20,
    "KD" : 0.0,
    "KI" : 0.0
  },


  "50" : {
    "KP" : 20,
    "KD" : 0.0,
    "KI" : 0.0
  },

  "75" : {
    "KP" : 20,
    "KD" : 0,
    "KI" : 0.0
  },

  "100" : {
    "KP" : 20,
    "KD" : 0,
    "KI" : 0.0
  }
}
}
